\relax 
\providecommand\hyper@newdestlabel[2]{}
\providecommand\HyperFirstAtBeginDocument{\AtBeginDocument}
\HyperFirstAtBeginDocument{\ifx\hyper@anchor\@undefined
\global\let\oldcontentsline\contentsline
\gdef\contentsline#1#2#3#4{\oldcontentsline{#1}{#2}{#3}}
\global\let\oldnewlabel\newlabel
\gdef\newlabel#1#2{\newlabelxx{#1}#2}
\gdef\newlabelxx#1#2#3#4#5#6{\oldnewlabel{#1}{{#2}{#3}}}
\AtEndDocument{\ifx\hyper@anchor\@undefined
\let\contentsline\oldcontentsline
\let\newlabel\oldnewlabel
\fi}
\fi}
\global\let\hyper@last\relax 
\gdef\HyperFirstAtBeginDocument#1{#1}
\providecommand\HyField@AuxAddToFields[1]{}
\providecommand\HyField@AuxAddToCoFields[2]{}
\select@language{english}
\@writefile{toc}{\select@language{english}}
\@writefile{lof}{\select@language{english}}
\@writefile{lot}{\select@language{english}}
\@writefile{toc}{\contentsline {section}{Introduction}{1}{Doc-Start}}
\@writefile{toc}{\contentsline {section}{\numberline {1}Quantum Monte Carlo}{1}{section.1}}
\@writefile{toc}{\contentsline {subsection}{\numberline {1.1}Particle in an harmonic potential with $T\rightarrow 0$}{1}{subsection.1.1}}
\@writefile{lof}{\contentsline {figure}{\numberline {1}{\ignorespaces Energy levels and wavefunctions for a particle in an harmonic oscillator. The energy level are shifted and $m=\hbar  = \omega = 1$\relax }}{1}{figure.caption.1}}
\providecommand*\caption@xref[2]{\@setref\relax\@undefined{#1}}
\newlabel{fig:wavefunctions}{{1}{1}{Energy levels and wavefunctions for a particle in an harmonic oscillator. The energy level are shifted and $m=\hbar = \omega = 1$\relax }{figure.caption.1}{}}
\newlabel{eq:ClassicPi}{{1}{1}{Particle in an harmonic potential with $T\rightarrow 0$}{equation.1.1}{}}
\newlabel{eq:piQ_groundS}{{2}{1}{Particle in an harmonic potential with $T\rightarrow 0$}{equation.1.2}{}}
\@writefile{lof}{\contentsline {figure}{\numberline {2}{\ignorespaces Probability function $\pi (x)$ for a classic particle in an harmonic potential at its ground state.\relax }}{2}{figure.caption.2}}
\newlabel{fig:PiClassicTo0}{{2}{2}{Probability function $\pi (x)$ for a classic particle in an harmonic potential at its ground state.\relax }{figure.caption.2}{}}
\newlabel{eq:GeneralPi}{{3}{2}{Particle in an harmonic potential with $T\rightarrow 0$}{equation.1.3}{}}
\@writefile{lof}{\contentsline {figure}{\numberline {3}{\ignorespaces Probability function $\pi (x)$ for a quantum particle in an harmonic potential at its ground state.\relax }}{2}{figure.caption.3}}
\newlabel{fig:Pi_GroundS_MCMC}{{3}{2}{Probability function $\pi (x)$ for a quantum particle in an harmonic potential at its ground state.\relax }{figure.caption.3}{}}
\@writefile{toc}{\contentsline {subsection}{\numberline {1.2}Particle in an harmonic potential with finite $T$}{2}{subsection.1.2}}
\@writefile{lof}{\contentsline {figure}{\numberline {4}{\ignorespaces Probability function $\pi (x)$ for a quantum particle at finite $T$.\relax }}{3}{figure.caption.4}}
\newlabel{fig:PiQ_Metropolis}{{4}{3}{Probability function $\pi (x)$ for a quantum particle at finite $T$.\relax }{figure.caption.4}{}}
\@writefile{toc}{\contentsline {section}{\numberline {2}Matrix Squaring and Path-Integral Quantum Monte Carlo}{3}{section.2}}
\@writefile{toc}{\contentsline {subsection}{\numberline {2.1}Matrix Squaring}{3}{subsection.2.1}}
\newlabel{eq:TrotterFormula}{{10}{3}{Matrix Squaring}{equation.2.10}{}}
\newlabel{eq:MatrixS}{{11}{3}{Matrix Squaring}{equation.2.11}{}}
\citation{Figueredo:2009dg}
\bibstyle{unsrt}
\bibdata{sample}
\bibcite{Figueredo:2009dg}{1}
\@writefile{lof}{\contentsline {figure}{\numberline {5}{\ignorespaces Quantum probability function $\pi (x)$ for several values of $T$. Analitycal probability functions are plotted and we can see that as temperature decreases, the distribution is better represented by the quantum probability.\relax }}{4}{figure.caption.5}}
\newlabel{fig:PiQ_Analytic}{{5}{4}{Quantum probability function $\pi (x)$ for several values of $T$. Analitycal probability functions are plotted and we can see that as temperature decreases, the distribution is better represented by the quantum probability.\relax }{figure.caption.5}{}}
\newlabel{eq:MatrixS_discrtized}{{12}{4}{Matrix Squaring}{equation.2.12}{}}
\@writefile{lof}{\contentsline {figure}{\numberline {6}{\ignorespaces Quantum probability function $\pi (x)$ calculated with matrix squaring algorithm. The analitycal function also was plotted\relax }}{4}{figure.caption.6}}
\newlabel{fig:PiTroter}{{6}{4}{Quantum probability function $\pi (x)$ calculated with matrix squaring algorithm. The analitycal function also was plotted\relax }{figure.caption.6}{}}
\@writefile{toc}{\contentsline {subsection}{\numberline {2.2}Subsection}{4}{subsection.2.2}}
\@writefile{toc}{\contentsline {paragraph}{Paragraph}{4}{paragraph*.7}}
\@writefile{toc}{\contentsline {paragraph}{Paragraph}{4}{paragraph*.8}}
\@writefile{toc}{\contentsline {subsection}{\numberline {2.3}Subsection}{4}{subsection.2.3}}
\@writefile{toc}{\contentsline {section}{\numberline {3}Results and Discussion}{4}{section.3}}
\@writefile{toc}{\contentsline {subsection}{\numberline {3.1}Subsection}{4}{subsection.3.1}}
\@writefile{lot}{\contentsline {table}{\numberline {1}{\ignorespaces Table of Grades\relax }}{4}{table.caption.9}}
\newlabel{tab:label}{{1}{4}{Table of Grades\relax }{table.caption.9}{}}
\@writefile{toc}{\contentsline {subsubsection}{\numberline {3.1.1}Subsubsection}{4}{subsubsection.3.1.1}}
\@writefile{toc}{\contentsline {subsubsection}{\numberline {3.1.2}Subsubsection}{4}{subsubsection.3.1.2}}
\@writefile{toc}{\contentsline {subsubsection}{\numberline {3.1.3}Subsubsection}{4}{subsubsection.3.1.3}}
\@writefile{toc}{\contentsline {subsection}{\numberline {3.2}Subsection}{4}{subsection.3.2}}
\@writefile{toc}{\contentsline {section}{Acknowledgments}{4}{section*.10}}
\@writefile{toc}{\contentsline {section}{References}{4}{section*.11}}
\newlabel{LastPage}{{}{4}{}{page.4}{}}
\xdef\lastpage@lastpage{4}
\xdef\lastpage@lastpageHy{4}
\ttl@finishall
