\relax 
\providecommand\hyper@newdestlabel[2]{}
\providecommand\HyperFirstAtBeginDocument{\AtBeginDocument}
\HyperFirstAtBeginDocument{\ifx\hyper@anchor\@undefined
\global\let\oldcontentsline\contentsline
\gdef\contentsline#1#2#3#4{\oldcontentsline{#1}{#2}{#3}}
\global\let\oldnewlabel\newlabel
\gdef\newlabel#1#2{\newlabelxx{#1}#2}
\gdef\newlabelxx#1#2#3#4#5#6{\oldnewlabel{#1}{{#2}{#3}}}
\AtEndDocument{\ifx\hyper@anchor\@undefined
\let\contentsline\oldcontentsline
\let\newlabel\oldnewlabel
\fi}
\fi}
\global\let\hyper@last\relax 
\gdef\HyperFirstAtBeginDocument#1{#1}
\providecommand\HyField@AuxAddToFields[1]{}
\providecommand\HyField@AuxAddToCoFields[2]{}
\select@language{english}
\@writefile{toc}{\select@language{english}}
\@writefile{lof}{\select@language{english}}
\@writefile{lot}{\select@language{english}}
\@writefile{toc}{\contentsline {section}{Introduction}{1}{Doc-Start}}
\@writefile{toc}{\contentsline {section}{\numberline {1}Monte Carlo Cun\'atico}{2}{section.1}}
\@writefile{toc}{\contentsline {subsection}{\numberline {1.1} Part\'icula en un potencial arm\'onico con $T\rightarrow 0$}{2}{subsection.1.1}}
\@writefile{lof}{\contentsline {figure}{\numberline {1}{\ignorespaces  Niveles de Energia y funciones de onda para una part\'icula sometida a un potencial arm\'onico. Los niveles de energia estan desplazados para una mejor visualizaci\'on. Se tom\'o $m=\hbar  = \omega = 1$\relax }}{2}{figure.caption.1}}
\providecommand*\caption@xref[2]{\@setref\relax\@undefined{#1}}
\newlabel{fig:wavefunctions}{{1}{2}{Niveles de Energia y funciones de onda para una part\'icula sometida a un potencial arm\'onico. Los niveles de energia estan desplazados para una mejor visualizaci\'on. Se tom\'o $m=\hbar = \omega = 1$\relax }{figure.caption.1}{}}
\newlabel{eq:ClassicPi}{{1}{2}{ Part\'icula en un potencial arm\'onico con $T\rightarrow 0$}{equation.1.1}{}}
\@writefile{lof}{\contentsline {figure}{\numberline {2}{\ignorespaces Funci\'on de probabilidad $\pi (x)$ para una part\'icula cl\'asica en el estado de m\'inima energ\'ia, sometida a un potencial arm\'onico.\relax }}{2}{figure.caption.2}}
\newlabel{fig:PiClassicTo0}{{2}{2}{Funci\'on de probabilidad $\pi (x)$ para una part\'icula cl\'asica en el estado de m\'inima energ\'ia, sometida a un potencial arm\'onico.\relax }{figure.caption.2}{}}
\newlabel{eq:piQ_groundS}{{2}{2}{ Part\'icula en un potencial arm\'onico con $T\rightarrow 0$}{equation.1.2}{}}
\@writefile{lof}{\contentsline {figure}{\numberline {3}{\ignorespaces Funci\'on de probabilida $\pi (x)$ para una part\'icula cu\'antica en su estado base, sometida a un potencial arm\'onico.\relax }}{2}{figure.caption.3}}
\newlabel{fig:Pi_GroundS_MCMC}{{3}{2}{Funci\'on de probabilida $\pi (x)$ para una part\'icula cu\'antica en su estado base, sometida a un potencial arm\'onico.\relax }{figure.caption.3}{}}
\newlabel{eq:GeneralPi}{{3}{3}{ Part\'icula en un potencial arm\'onico con $T\rightarrow 0$}{equation.1.3}{}}
\@writefile{toc}{\contentsline {subsection}{\numberline {1.2}Part\'icula en un potencial arm\'onico con $T$ finito}{3}{subsection.1.2}}
\newlabel{eq:PiQ_AnalyticDist}{{5}{3}{Part\'icula en un potencial arm\'onico con $T$ finito}{equation.1.5}{}}
\@writefile{lof}{\contentsline {figure}{\numberline {5}{\ignorespaces Funci\'on de probabilidad cu\'antica $\pi (x)$ para varios valores de $T$. Se grafica tambi\'en la funci\'on de probabilidad anal\'itica y se puede ver que a medida que la temperatura decrece, la distribuci\'on se ajusta mas a la probabilidad cu\'antica.\relax }}{3}{figure.caption.5}}
\newlabel{fig:PiQ_Analytic}{{5}{3}{Funci\'on de probabilidad cu\'antica $\pi (x)$ para varios valores de $T$. Se grafica tambi\'en la funci\'on de probabilidad anal\'itica y se puede ver que a medida que la temperatura decrece, la distribuci\'on se ajusta mas a la probabilidad cu\'antica.\relax }{figure.caption.5}{}}
\@writefile{toc}{\contentsline {section}{\numberline {2}Matrix Squaring y Path-Integral Quantum Monte Carlo}{3}{section.2}}
\@writefile{toc}{\contentsline {subsection}{\numberline {2.1}Matrix Squaring}{3}{subsection.2.1}}
\@writefile{lof}{\contentsline {figure}{\numberline {4}{\ignorespaces Funci\'on de probabilidad $\pi (x)$ para una part\'icula cu\'antica y a una temperatura finita $T$.\relax }}{4}{figure.caption.4}}
\newlabel{fig:PiQ_Metropolis}{{4}{4}{Funci\'on de probabilidad $\pi (x)$ para una part\'icula cu\'antica y a una temperatura finita $T$.\relax }{figure.caption.4}{}}
\newlabel{eq:MatrixS}{{10}{4}{Matrix Squaring}{equation.2.10}{}}
\newlabel{eq:TrotterFormula}{{11}{4}{Matrix Squaring}{equation.2.11}{}}
\newlabel{eq:MatrixS_discrtized}{{12}{4}{Matrix Squaring}{equation.2.12}{}}
\@writefile{lof}{\contentsline {figure}{\numberline {7}{\ignorespaces Funci\'on de probabilidad $\pi (x)$ variando los par\'ametros $dx$ y $\beta _0$. (Izquierda) Se varia el tama\~no de la muestra de los valores de $x$ y se puede ver que entre menos elementos se tengan ($dx$ grandes), la distribuci\'on se aleja del resultado anal\'itico. (Derecha) Se varian los valores de $\beta _0$ desde $2^{-6}$ hasta $1$ y se observa que entre mas peque\~no sea $\beta _0$ se obtiene una distribuci\'on mas acorde al resultado real.\relax }}{5}{figure.caption.7}}
\newlabel{fig:VaryingParam}{{7}{5}{Funci\'on de probabilidad $\pi (x)$ variando los par\'ametros $dx$ y $\beta _0$. (Izquierda) Se varia el tama\~no de la muestra de los valores de $x$ y se puede ver que entre menos elementos se tengan ($dx$ grandes), la distribuci\'on se aleja del resultado anal\'itico. (Derecha) Se varian los valores de $\beta _0$ desde $2^{-6}$ hasta $1$ y se observa que entre mas peque\~no sea $\beta _0$ se obtiene una distribuci\'on mas acorde al resultado real.\relax }{figure.caption.7}{}}
\@writefile{toc}{\contentsline {subsection}{\numberline {2.2}Integrales de trayectoria con Monte Carlo}{5}{subsection.2.2}}
\@writefile{lof}{\contentsline {figure}{\numberline {6}{\ignorespaces Funci\'on de probabilidad cu\'antica $\pi (x)$ calculada con el algoritmo de matrix squaring. La soluci\'on anal\'itica tambi\'en es graficada\relax }}{5}{figure.caption.6}}
\newlabel{fig:PiTroter}{{6}{5}{Funci\'on de probabilidad cu\'antica $\pi (x)$ calculada con el algoritmo de matrix squaring. La soluci\'on anal\'itica tambi\'en es graficada\relax }{figure.caption.6}{}}
\@writefile{lof}{\contentsline {figure}{\numberline {8}{\ignorespaces Trayectoria inicial y final obtenida por el m\'etodo de integrales de trayectoria.\relax }}{6}{figure.caption.8}}
\newlabel{fig:PathMC}{{8}{6}{Trayectoria inicial y final obtenida por el m\'etodo de integrales de trayectoria.\relax }{figure.caption.8}{}}
\@writefile{lof}{\contentsline {figure}{\numberline {9}{\ignorespaces Distribuci\'on para la posici\'on $x_0$ obtenida por integrales de trayectoria. Se tom\'o $N=8,\beta =4.0$ y $1\times 10^6$ iteraciones\relax }}{6}{figure.caption.9}}
\newlabel{fig:HistoPathMC_x0}{{9}{6}{Distribuci\'on para la posici\'on $x_0$ obtenida por integrales de trayectoria. Se tom\'o $N=8,\beta =4.0$ y $1\times 10^6$ iteraciones\relax }{figure.caption.9}{}}
\@writefile{lof}{\contentsline {figure}{\numberline {10}{\ignorespaces Histograma de dos posiciones de la trayectoria de la part\'icula obtenida por el m\'etodo de integrales de trayectoria. Se tom\'o $N=10,\beta =4.0$ y $1\times 10^6$ iteraciones\relax }}{6}{figure.caption.10}}
\newlabel{fig:HistoPathMC_2xvalues}{{10}{6}{Histograma de dos posiciones de la trayectoria de la part\'icula obtenida por el m\'etodo de integrales de trayectoria. Se tom\'o $N=10,\beta =4.0$ y $1\times 10^6$ iteraciones\relax }{figure.caption.10}{}}
\@writefile{toc}{\contentsline {subsection}{\numberline {2.3}Part\'icula en un potencial anarm\'onico }{6}{subsection.2.3}}
\@writefile{lof}{\contentsline {figure}{\numberline {11}{\ignorespaces Funci\'on de probabilidad $\pi (x)$ por matrix squaring para una part\'icula en un potencial anarm\'onico. Se compara con el caso de un potencial arm\'onico\relax }}{7}{figure.caption.11}}
\newlabel{fig:MatrixS_anharmonic}{{11}{7}{Funci\'on de probabilidad $\pi (x)$ por matrix squaring para una part\'icula en un potencial anarm\'onico. Se compara con el caso de un potencial arm\'onico\relax }{figure.caption.11}{}}
\@writefile{lof}{\contentsline {figure}{\numberline {12}{\ignorespaces Funci\'on de probabilidad $\pi (x)$ obtenida por path integral Monte Carlo para una part\'icula en un potencial anarm\'onico. Se compara con el caso de un potencial arm\'onico y con el resultado obtenido con matrix squaring para $N=10$\relax }}{7}{figure.caption.12}}
\newlabel{fig:PathIntegral_anharmonic}{{12}{7}{Funci\'on de probabilidad $\pi (x)$ obtenida por path integral Monte Carlo para una part\'icula en un potencial anarm\'onico. Se compara con el caso de un potencial arm\'onico y con el resultado obtenido con matrix squaring para $N=10$\relax }{figure.caption.12}{}}
\@writefile{toc}{\contentsline {section}{\numberline {3}2D Ising Model}{7}{section.3}}
\@writefile{lof}{\contentsline {figure}{\numberline {13}{\ignorespaces Energ\'ia media por esp\'in para distintos n\'umero de iteraciones. En cada caso se parti\'o de una configuraci\'on de esp\'in aleatoria y se observa que para un mayor n\'umero de iteraciones, el valor obtenido por el m\'etodo de Metr\'opolis se acerca al valor anal\'itico. Para este caso se tom\'o un tama\~no de ret\'icula $L=6$ con $N=36$ espines, $T=2.0$\relax }}{7}{figure.caption.13}}
\newlabel{fig:Ising_severalSteps}{{13}{7}{Energ\'ia media por esp\'in para distintos n\'umero de iteraciones. En cada caso se parti\'o de una configuraci\'on de esp\'in aleatoria y se observa que para un mayor n\'umero de iteraciones, el valor obtenido por el m\'etodo de Metr\'opolis se acerca al valor anal\'itico. Para este caso se tom\'o un tama\~no de ret\'icula $L=6$ con $N=36$ espines, $T=2.0$\relax }{figure.caption.13}{}}
\@writefile{lof}{\contentsline {figure}{\numberline {14}{\ignorespaces Configuraci\'on inicial y final del sistema de tama\~no de ret\'icula $L=6$ con $N=36$ espines y $T=2.0$\relax }}{8}{figure.caption.14}}
\newlabel{fig:IsingConf_L6}{{14}{8}{Configuraci\'on inicial y final del sistema de tama\~no de ret\'icula $L=6$ con $N=36$ espines y $T=2.0$\relax }{figure.caption.14}{}}
\@writefile{lof}{\contentsline {figure}{\numberline {15}{\ignorespaces Magnetizaci\'on neta de un sistema de Ising 2D de tama\~no $64\times 64$ de \'atomos ferromagn\'eticos. Imagen tomada de \url  {http://farside.ph.utexas.edu/teaching/329/lectures/node110.html}\relax }}{8}{figure.caption.15}}
\newlabel{fig:IsingMagnetization}{{15}{8}{Magnetizaci\'on neta de un sistema de Ising 2D de tama\~no $64\times 64$ de \'atomos ferromagn\'eticos. Imagen tomada de \url {http://farside.ph.utexas.edu/teaching/329/lectures/node110.html}\relax }{figure.caption.15}{}}
\@writefile{lof}{\contentsline {figure}{\numberline {16}{\ignorespaces Configuraci\'on inicial y final para sistema de tama\~no de ret\'icula $L=128$, $T=3.0$ y nsteps=$4000L^2$. Se parti\'o de una configuraci\'on inicial aleatoria\relax }}{8}{figure.caption.16}}
\newlabel{fig:IsingConf_L128T2}{{16}{8}{Configuraci\'on inicial y final para sistema de tama\~no de ret\'icula $L=128$, $T=3.0$ y nsteps=$4000L^2$. Se parti\'o de una configuraci\'on inicial aleatoria\relax }{figure.caption.16}{}}
\@writefile{lof}{\contentsline {figure}{\numberline {17}{\ignorespaces Configuraci\'on inicial y final para sistema de tama\~no de ret\'icula $L=128$, $T=2.27$ y nsteps=$4000L^2$. Se parti\'o de una configuraci\'on inicial aleatoria\relax }}{8}{figure.caption.17}}
\newlabel{fig:IsingConf_L128T2.27}{{17}{8}{Configuraci\'on inicial y final para sistema de tama\~no de ret\'icula $L=128$, $T=2.27$ y nsteps=$4000L^2$. Se parti\'o de una configuraci\'on inicial aleatoria\relax }{figure.caption.17}{}}
\@writefile{toc}{\contentsline {section}{\numberline {4}Conclusiones}{8}{section.4}}
\bibcite{WernerKraut}{1}
\bibcite{McCoy}{2}
\bibcite{Brooks}{3}
\bibcite{Schattke}{4}
\bibcite{Stickler}{5}
\bibcite{Webpage1}{6}
\@writefile{lof}{\contentsline {figure}{\numberline {18}{\ignorespaces Configuraci\'on inicial y final para sistema de tama\~no de ret\'icula $L=32$, $T=1.0$ y nsteps=$4000L^2$. Se parti\'o de una configuraci\'on inicial aleatoria\relax }}{9}{figure.caption.18}}
\newlabel{fig:IsingConf_L32T1}{{18}{9}{Configuraci\'on inicial y final para sistema de tama\~no de ret\'icula $L=32$, $T=1.0$ y nsteps=$4000L^2$. Se parti\'o de una configuraci\'on inicial aleatoria\relax }{figure.caption.18}{}}
\@writefile{toc}{\contentsline {section}{\numberline {5}Observaciones}{9}{section.5}}
\@writefile{toc}{\contentsline {section}{References}{9}{section*.20}}
\newlabel{LastPage}{{}{9}{}{page.9}{}}
\xdef\lastpage@lastpage{9}
\xdef\lastpage@lastpageHy{9}
\ttl@finishall
